{
    "Z_jets": {
        "CR_Z_monoShh": {
            "JET_JER_EffectiveNP_1_up": 83.306980776704,
            "JET_JER_EffectiveNP_1_down": 93.98556843945713,
            "JET_JER_EffectiveNP_2_up": 83.13369009096297,
            "JET_JER_EffectiveNP_2_down": 94.54125237229164,
            "JET_JER_EffectiveNP_3_up": 91.82616096896437,
            "JET_JER_EffectiveNP_3_down": 84.29631744180148,
            "JET_JER_EffectiveNP_4_up": 92.7723034446121,
            "JET_JER_EffectiveNP_4_down": 84.10278229980993,
            "JET_JER_EffectiveNP_5_up": 87.60568706077188,
            "JET_JER_EffectiveNP_5_down": 88.7343960099187,
            "JET_JER_EffectiveNP_6_up": 90.02351017483963,
            "JET_JER_EffectiveNP_6_down": 86.42093840331506,
            "JET_JER_EffectiveNP_7_up": 87.70433041888123,
            "JET_JER_EffectiveNP_7_down": 88.42680965069638,
            "JET_JER_EffectiveNP_8_up": 87.25031468696972,
            "JET_JER_EffectiveNP_8_down": 88.59739626605406,
            "JET_JER_EffectiveNP_9_up": 86.845101448035,
            "JET_JER_EffectiveNP_9_down": 89.27644975973394,
            "JET_JER_EffectiveNP_10_up": 88.84893370869933,
            "JET_JER_EffectiveNP_10_down": 87.52395088114507,
            "JET_JER_EffectiveNP_11_up": 87.81813816462986,
            "JET_JER_EffectiveNP_11_down": 88.3564878802681,
            "JET_JER_EffectiveNP_12restTerm_up": 86.77172763597099,
            "JET_JER_EffectiveNP_12restTerm_down": 89.58832827444772,
            "JET_JER_DataVsMC_MC16_up": 91.06907113981445,
            "JET_JER_DataVsMC_MC16_down": 86.2028901706395
        },
        "CR_3b_high_mTb_monoShh": {
            "JET_JER_EffectiveNP_1_up": 39.373897595475036,
            "JET_JER_EffectiveNP_1_down": 36.2081010212734,
            "JET_JER_EffectiveNP_2_up": 39.10397647511296,
            "JET_JER_EffectiveNP_2_down": 37.9653839456269,
            "JET_JER_EffectiveNP_3_up": 37.66599516346733,
            "JET_JER_EffectiveNP_3_down": 38.293254341694094,
            "JET_JER_EffectiveNP_4_up": 38.32162549107041,
            "JET_JER_EffectiveNP_4_down": 38.521904933896394,
            "JET_JER_EffectiveNP_5_up": 38.185413211487486,
            "JET_JER_EffectiveNP_5_down": 37.58892731379727,
            "JET_JER_EffectiveNP_6_up": 38.284866954051864,
            "JET_JER_EffectiveNP_6_down": 38.83652286149714,
            "JET_JER_EffectiveNP_7_up": 38.28886238043927,
            "JET_JER_EffectiveNP_7_down": 38.322587237679755,
            "JET_JER_EffectiveNP_8_up": 38.079915508400575,
            "JET_JER_EffectiveNP_8_down": 39.01378221687723,
            "JET_JER_EffectiveNP_9_up": 39.09027157760456,
            "JET_JER_EffectiveNP_9_down": 37.0343358454104,
            "JET_JER_EffectiveNP_10_up": 38.33792749352108,
            "JET_JER_EffectiveNP_10_down": 38.867026289720314,
            "JET_JER_EffectiveNP_11_up": 38.45964904066648,
            "JET_JER_EffectiveNP_11_down": 38.2578752762666,
            "JET_JER_EffectiveNP_12restTerm_up": 38.68293432685531,
            "JET_JER_EffectiveNP_12restTerm_down": 38.03336054674132,
            "JET_JER_DataVsMC_MC16_up": 37.857183101586905,
            "JET_JER_DataVsMC_MC16_down": 38.01280481463778
        },
        "CR_3b_low_mTb_monoShh": {
            "JET_JER_EffectiveNP_1_up": 77.06751054455724,
            "JET_JER_EffectiveNP_1_down": 89.41259076358423,
            "JET_JER_EffectiveNP_2_up": 76.34467907899867,
            "JET_JER_EffectiveNP_2_down": 88.89732851762055,
            "JET_JER_EffectiveNP_3_up": 87.75725546642023,
            "JET_JER_EffectiveNP_3_down": 78.15869963430406,
            "JET_JER_EffectiveNP_4_up": 88.50721151208037,
            "JET_JER_EffectiveNP_4_down": 77.96449911798848,
            "JET_JER_EffectiveNP_5_up": 82.41582193801229,
            "JET_JER_EffectiveNP_5_down": 82.41608651325457,
            "JET_JER_EffectiveNP_6_up": 83.40954434619412,
            "JET_JER_EffectiveNP_6_down": 79.59119921329521,
            "JET_JER_EffectiveNP_7_up": 81.7690670981482,
            "JET_JER_EffectiveNP_7_down": 82.77463955722155,
            "JET_JER_EffectiveNP_8_up": 81.88191608010268,
            "JET_JER_EffectiveNP_8_down": 82.52386791579346,
            "JET_JER_EffectiveNP_9_up": 81.41003277733344,
            "JET_JER_EffectiveNP_9_down": 83.80073794947833,
            "JET_JER_EffectiveNP_10_up": 82.99444080562677,
            "JET_JER_EffectiveNP_10_down": 80.66721084054345,
            "JET_JER_EffectiveNP_11_up": 82.15445465855203,
            "JET_JER_EffectiveNP_11_down": 82.53843111651885,
            "JET_JER_EffectiveNP_12restTerm_up": 80.49458943823818,
            "JET_JER_EffectiveNP_12restTerm_down": 82.69533492822359,
            "JET_JER_DataVsMC_MC16_up": 85.63815732999234,
            "JET_JER_DataVsMC_MC16_down": 80.3119860517457
        },
        "CR_4b_monoShh": {
            "JET_JER_EffectiveNP_1_up": 9.744577839776255,
            "JET_JER_EffectiveNP_1_down": 10.538886414385434,
            "JET_JER_EffectiveNP_2_up": 9.53401559486254,
            "JET_JER_EffectiveNP_2_down": 10.442632828781704,
            "JET_JER_EffectiveNP_3_up": 10.666161993057795,
            "JET_JER_EffectiveNP_3_down": 10.553727273032079,
            "JET_JER_EffectiveNP_4_up": 10.652535290128753,
            "JET_JER_EffectiveNP_4_down": 10.148839858321828,
            "JET_JER_EffectiveNP_5_up": 10.418678031511973,
            "JET_JER_EffectiveNP_5_down": 9.645648660564035,
            "JET_JER_EffectiveNP_6_up": 10.423268742435727,
            "JET_JER_EffectiveNP_6_down": 9.906161186361158,
            "JET_JER_EffectiveNP_7_up": 9.54876659794082,
            "JET_JER_EffectiveNP_7_down": 10.39760374802303,
            "JET_JER_EffectiveNP_8_up": 10.14502679394801,
            "JET_JER_EffectiveNP_8_down": 10.018983390003488,
            "JET_JER_EffectiveNP_9_up": 9.684137070374561,
            "JET_JER_EffectiveNP_9_down": 10.205289029657376,
            "JET_JER_EffectiveNP_10_up": 10.367164202373973,
            "JET_JER_EffectiveNP_10_down": 10.144053291067618,
            "JET_JER_EffectiveNP_11_up": 9.827591369528797,
            "JET_JER_EffectiveNP_11_down": 9.7309762080391,
            "JET_JER_EffectiveNP_12restTerm_up": 9.598111006538893,
            "JET_JER_EffectiveNP_12restTerm_down": 10.020182378861147,
            "JET_JER_DataVsMC_MC16_up": 10.53936000171816,
            "JET_JER_DataVsMC_MC16_down": 10.031201673244375
        },
        "SR_monoShh_bin_0_50": {
            "JET_JER_EffectiveNP_1_up": 0.0,
            "JET_JER_EffectiveNP_1_down": 0.0,
            "JET_JER_EffectiveNP_2_up": 0.0,
            "JET_JER_EffectiveNP_2_down": 0.0,
            "JET_JER_EffectiveNP_3_up": 0.0,
            "JET_JER_EffectiveNP_3_down": 0.0,
            "JET_JER_EffectiveNP_4_up": 0.0,
            "JET_JER_EffectiveNP_4_down": 0.0,
            "JET_JER_EffectiveNP_5_up": 0.0,
            "JET_JER_EffectiveNP_5_down": 0.0,
            "JET_JER_EffectiveNP_6_up": 0.0,
            "JET_JER_EffectiveNP_6_down": 0.0,
            "JET_JER_EffectiveNP_7_up": 0.0,
            "JET_JER_EffectiveNP_7_down": 0.0,
            "JET_JER_EffectiveNP_8_up": 0.0,
            "JET_JER_EffectiveNP_8_down": 0.0,
            "JET_JER_EffectiveNP_9_up": 0.0,
            "JET_JER_EffectiveNP_9_down": 0.0,
            "JET_JER_EffectiveNP_10_up": 0.0,
            "JET_JER_EffectiveNP_10_down": 0.0,
            "JET_JER_EffectiveNP_11_up": 0.0,
            "JET_JER_EffectiveNP_11_down": 0.0,
            "JET_JER_EffectiveNP_12restTerm_up": 0.0,
            "JET_JER_EffectiveNP_12restTerm_down": 0.0,
            "JET_JER_DataVsMC_MC16_up": 0.0,
            "JET_JER_DataVsMC_MC16_down": 0.0
        },
        "SR_monoShh_bin_50_100": {
            "JET_JER_EffectiveNP_1_up": 0.012915951268591842,
            "JET_JER_EffectiveNP_1_down": 0.012889973909529166,
            "JET_JER_EffectiveNP_2_up": 0.012919297954179346,
            "JET_JER_EffectiveNP_2_down": 0.012890493159519859,
            "JET_JER_EffectiveNP_3_up": 0.01289002901563159,
            "JET_JER_EffectiveNP_3_down": 0.012910959434026271,
            "JET_JER_EffectiveNP_4_up": 0.012890152550793111,
            "JET_JER_EffectiveNP_4_down": 0.012909691041230477,
            "JET_JER_EffectiveNP_5_up": 0.012891337445694881,
            "JET_JER_EffectiveNP_5_down": 0.012885064610655292,
            "JET_JER_EffectiveNP_6_up": 0.012891238099041046,
            "JET_JER_EffectiveNP_6_down": 0.01291340510521395,
            "JET_JER_EffectiveNP_7_up": 0.012892401379386782,
            "JET_JER_EffectiveNP_7_down": 0.01288977151984011,
            "JET_JER_EffectiveNP_8_up": 0.012898023930068125,
            "JET_JER_EffectiveNP_8_down": 0.012887117785206988,
            "JET_JER_EffectiveNP_9_up": 0.012893251431357267,
            "JET_JER_EffectiveNP_9_down": 0.01289858549839039,
            "JET_JER_EffectiveNP_10_up": 0.012896399837106803,
            "JET_JER_EffectiveNP_10_down": 0.012890470963347032,
            "JET_JER_EffectiveNP_11_up": 0.012890718294702185,
            "JET_JER_EffectiveNP_11_down": 0.012897044908971908,
            "JET_JER_EffectiveNP_12restTerm_up": 0.012890432180627288,
            "JET_JER_EffectiveNP_12restTerm_down": 0.012887522274348098,
            "JET_JER_DataVsMC_MC16_up": 0.012887680954739734,
            "JET_JER_DataVsMC_MC16_down": 0.012897107831522276
        },
        "SR_monoShh_bin_100_150": {
            "JET_JER_EffectiveNP_1_up": 0.8737996143988176,
            "JET_JER_EffectiveNP_1_down": 0.694792460869726,
            "JET_JER_EffectiveNP_2_up": 0.9137520678832204,
            "JET_JER_EffectiveNP_2_down": 0.35759278796751093,
            "JET_JER_EffectiveNP_3_up": 0.5422112997643176,
            "JET_JER_EffectiveNP_3_down": 0.9252867299882481,
            "JET_JER_EffectiveNP_4_up": 0.660370038714455,
            "JET_JER_EffectiveNP_4_down": 0.777116153550353,
            "JET_JER_EffectiveNP_5_up": 0.5507576312297915,
            "JET_JER_EffectiveNP_5_down": 0.7979004834850687,
            "JET_JER_EffectiveNP_6_up": 0.5763251736500365,
            "JET_JER_EffectiveNP_6_down": 0.7654440227449171,
            "JET_JER_EffectiveNP_7_up": 0.6764219832650624,
            "JET_JER_EffectiveNP_7_down": 0.7152268570455873,
            "JET_JER_EffectiveNP_8_up": 0.6999746137106883,
            "JET_JER_EffectiveNP_8_down": 0.8490310997171437,
            "JET_JER_EffectiveNP_9_up": 0.7751690914182723,
            "JET_JER_EffectiveNP_9_down": 0.6296011822718037,
            "JET_JER_EffectiveNP_10_up": 0.6055262021155067,
            "JET_JER_EffectiveNP_10_down": 0.9067444853079698,
            "JET_JER_EffectiveNP_11_up": 0.7786840574976471,
            "JET_JER_EffectiveNP_11_down": 0.7607945910695997,
            "JET_JER_EffectiveNP_12restTerm_up": 0.7571324208155934,
            "JET_JER_EffectiveNP_12restTerm_down": 0.7743949637285277,
            "JET_JER_DataVsMC_MC16_up": 0.7552947966775649,
            "JET_JER_DataVsMC_MC16_down": 0.7799079769584714
        },
        "SR_monoShh_bin_150_200": {
            "JET_JER_EffectiveNP_1_up": 3.6709739263651238,
            "JET_JER_EffectiveNP_1_down": 3.8609467252015133,
            "JET_JER_EffectiveNP_2_up": 3.443805196685595,
            "JET_JER_EffectiveNP_2_down": 3.7036647478788796,
            "JET_JER_EffectiveNP_3_up": 3.711799846448094,
            "JET_JER_EffectiveNP_3_down": 3.643343349814581,
            "JET_JER_EffectiveNP_4_up": 3.635883480507975,
            "JET_JER_EffectiveNP_4_down": 3.3391089527898914,
            "JET_JER_EffectiveNP_5_up": 3.430349396537958,
            "JET_JER_EffectiveNP_5_down": 3.648111756752022,
            "JET_JER_EffectiveNP_6_up": 3.611410251042396,
            "JET_JER_EffectiveNP_6_down": 3.410239173068069,
            "JET_JER_EffectiveNP_7_up": 3.484069143802258,
            "JET_JER_EffectiveNP_7_down": 3.619280671479604,
            "JET_JER_EffectiveNP_8_up": 3.568512718325702,
            "JET_JER_EffectiveNP_8_down": 3.512956508492202,
            "JET_JER_EffectiveNP_9_up": 3.669969808005396,
            "JET_JER_EffectiveNP_9_down": 3.6700680961108683,
            "JET_JER_EffectiveNP_10_up": 3.611393159137436,
            "JET_JER_EffectiveNP_10_down": 3.4568145968550077,
            "JET_JER_EffectiveNP_11_up": 3.557110426966691,
            "JET_JER_EffectiveNP_11_down": 3.6433221365660984,
            "JET_JER_EffectiveNP_12restTerm_up": 3.6729444224391217,
            "JET_JER_EffectiveNP_12restTerm_down": 3.509223029272828,
            "JET_JER_DataVsMC_MC16_up": 3.537627212847484,
            "JET_JER_DataVsMC_MC16_down": 3.5426228286135415
        },
        "SR_monoShh_bin_200_250": {
            "JET_JER_EffectiveNP_1_up": 4.463162864570079,
            "JET_JER_EffectiveNP_1_down": 5.512295971449078,
            "JET_JER_EffectiveNP_2_up": 4.53917734886358,
            "JET_JER_EffectiveNP_2_down": 4.863229852090625,
            "JET_JER_EffectiveNP_3_up": 5.062772453187105,
            "JET_JER_EffectiveNP_3_down": 4.545856931251926,
            "JET_JER_EffectiveNP_4_up": 5.046035573054365,
            "JET_JER_EffectiveNP_4_down": 4.837222488501618,
            "JET_JER_EffectiveNP_5_up": 4.834259094251875,
            "JET_JER_EffectiveNP_5_down": 4.936364121693217,
            "JET_JER_EffectiveNP_6_up": 5.028636580649434,
            "JET_JER_EffectiveNP_6_down": 4.843407033080764,
            "JET_JER_EffectiveNP_7_up": 5.03010869556418,
            "JET_JER_EffectiveNP_7_down": 4.979640356020341,
            "JET_JER_EffectiveNP_8_up": 5.03717119877115,
            "JET_JER_EffectiveNP_8_down": 4.667805665848669,
            "JET_JER_EffectiveNP_9_up": 4.771382043020983,
            "JET_JER_EffectiveNP_9_down": 5.029940605716997,
            "JET_JER_EffectiveNP_10_up": 4.986841052488904,
            "JET_JER_EffectiveNP_10_down": 4.924416048225315,
            "JET_JER_EffectiveNP_11_up": 4.872668650237052,
            "JET_JER_EffectiveNP_11_down": 5.03050089650213,
            "JET_JER_EffectiveNP_12restTerm_up": 4.8666649878165265,
            "JET_JER_EffectiveNP_12restTerm_down": 4.9817453700351395,
            "JET_JER_DataVsMC_MC16_up": 4.929366159758288,
            "JET_JER_DataVsMC_MC16_down": 4.603725467747078
        },
        "SR_monoShh_bin_250_300": {
            "JET_JER_EffectiveNP_1_up": 3.680333803407268,
            "JET_JER_EffectiveNP_1_down": 3.095170649374503,
            "JET_JER_EffectiveNP_2_up": 3.754429303008408,
            "JET_JER_EffectiveNP_2_down": 3.7187174083980423,
            "JET_JER_EffectiveNP_3_up": 3.2506584801054244,
            "JET_JER_EffectiveNP_3_down": 3.654131207868306,
            "JET_JER_EffectiveNP_4_up": 3.3512520505552503,
            "JET_JER_EffectiveNP_4_down": 3.5848124810270265,
            "JET_JER_EffectiveNP_5_up": 3.1907508823637665,
            "JET_JER_EffectiveNP_5_down": 3.4418321558594958,
            "JET_JER_EffectiveNP_6_up": 3.30912404734309,
            "JET_JER_EffectiveNP_6_down": 3.5263815866094204,
            "JET_JER_EffectiveNP_7_up": 3.336655507706512,
            "JET_JER_EffectiveNP_7_down": 3.3722097044905963,
            "JET_JER_EffectiveNP_8_up": 3.169418313034558,
            "JET_JER_EffectiveNP_8_down": 3.432681631330593,
            "JET_JER_EffectiveNP_9_up": 3.314046019151025,
            "JET_JER_EffectiveNP_9_down": 3.1447717213877455,
            "JET_JER_EffectiveNP_10_up": 3.263812258481714,
            "JET_JER_EffectiveNP_10_down": 3.2849116672504834,
            "JET_JER_EffectiveNP_11_up": 3.2230883737373404,
            "JET_JER_EffectiveNP_11_down": 3.26795829875695,
            "JET_JER_EffectiveNP_12restTerm_up": 3.2971214541236487,
            "JET_JER_EffectiveNP_12restTerm_down": 3.170675488840449,
            "JET_JER_DataVsMC_MC16_up": 3.450927717153948,
            "JET_JER_DataVsMC_MC16_down": 3.4496615698457145
        },
        "SR_monoShh_bin_300_350": {
            "JET_JER_EffectiveNP_1_up": 4.534351269040586,
            "JET_JER_EffectiveNP_1_down": 4.6176363527566835,
            "JET_JER_EffectiveNP_2_up": 4.7058562380868025,
            "JET_JER_EffectiveNP_2_down": 4.010230649142173,
            "JET_JER_EffectiveNP_3_up": 4.468107752061721,
            "JET_JER_EffectiveNP_3_down": 4.596021878604066,
            "JET_JER_EffectiveNP_4_up": 4.629658800193859,
            "JET_JER_EffectiveNP_4_down": 4.682646214889062,
            "JET_JER_EffectiveNP_5_up": 4.632831208977002,
            "JET_JER_EffectiveNP_5_down": 4.645417558811888,
            "JET_JER_EffectiveNP_6_up": 4.392936707200432,
            "JET_JER_EffectiveNP_6_down": 4.834909363216618,
            "JET_JER_EffectiveNP_7_up": 4.774143913185413,
            "JET_JER_EffectiveNP_7_down": 4.624003797751988,
            "JET_JER_EffectiveNP_8_up": 4.846206844104279,
            "JET_JER_EffectiveNP_8_down": 4.6204373501286256,
            "JET_JER_EffectiveNP_9_up": 4.728113874389436,
            "JET_JER_EffectiveNP_9_down": 4.616301471781963,
            "JET_JER_EffectiveNP_10_up": 4.73749748463332,
            "JET_JER_EffectiveNP_10_down": 4.788319731139495,
            "JET_JER_EffectiveNP_11_up": 4.764144565563026,
            "JET_JER_EffectiveNP_11_down": 4.681356967247817,
            "JET_JER_EffectiveNP_12restTerm_up": 4.906388028074366,
            "JET_JER_EffectiveNP_12restTerm_down": 4.721418011259746,
            "JET_JER_DataVsMC_MC16_up": 5.025140052355368,
            "JET_JER_DataVsMC_MC16_down": 5.000426518921936
        },
        "SR_monoShh_bin_350_400": {
            "JET_JER_EffectiveNP_1_up": 3.6819781801829494,
            "JET_JER_EffectiveNP_1_down": 3.650431378896456,
            "JET_JER_EffectiveNP_2_up": 3.8980748766973585,
            "JET_JER_EffectiveNP_2_down": 3.56826097811748,
            "JET_JER_EffectiveNP_3_up": 3.8530234985531973,
            "JET_JER_EffectiveNP_3_down": 3.5971813392886034,
            "JET_JER_EffectiveNP_4_up": 3.627962609439745,
            "JET_JER_EffectiveNP_4_down": 3.4397479450357804,
            "JET_JER_EffectiveNP_5_up": 3.911966788639759,
            "JET_JER_EffectiveNP_5_down": 3.597044911588358,
            "JET_JER_EffectiveNP_6_up": 3.8289369203164956,
            "JET_JER_EffectiveNP_6_down": 3.761635431710371,
            "JET_JER_EffectiveNP_7_up": 3.6463036395574124,
            "JET_JER_EffectiveNP_7_down": 3.8253340449194093,
            "JET_JER_EffectiveNP_8_up": 3.612043895621345,
            "JET_JER_EffectiveNP_8_down": 3.837816693081571,
            "JET_JER_EffectiveNP_9_up": 3.768508242931746,
            "JET_JER_EffectiveNP_9_down": 3.830892626746739,
            "JET_JER_EffectiveNP_10_up": 3.5358080063992534,
            "JET_JER_EffectiveNP_10_down": 3.5493997820092513,
            "JET_JER_EffectiveNP_11_up": 3.348142402628322,
            "JET_JER_EffectiveNP_11_down": 3.802461908851896,
            "JET_JER_EffectiveNP_12restTerm_up": 3.875333393187563,
            "JET_JER_EffectiveNP_12restTerm_down": 3.515064138233676,
            "JET_JER_DataVsMC_MC16_up": 3.562566858243981,
            "JET_JER_DataVsMC_MC16_down": 3.572787250107461
        },
        "SR_monoShh_bin_400_450": {
            "JET_JER_EffectiveNP_1_up": 2.0771228168443647,
            "JET_JER_EffectiveNP_1_down": 2.4951893969312824,
            "JET_JER_EffectiveNP_2_up": 2.178592980922069,
            "JET_JER_EffectiveNP_2_down": 2.5379398083453117,
            "JET_JER_EffectiveNP_3_up": 2.2070561876255956,
            "JET_JER_EffectiveNP_3_down": 2.18288331407005,
            "JET_JER_EffectiveNP_4_up": 2.4488263614380057,
            "JET_JER_EffectiveNP_4_down": 2.3205291056723554,
            "JET_JER_EffectiveNP_5_up": 2.3638124978717228,
            "JET_JER_EffectiveNP_5_down": 2.367901373534444,
            "JET_JER_EffectiveNP_6_up": 2.2186856919893945,
            "JET_JER_EffectiveNP_6_down": 2.259244622395082,
            "JET_JER_EffectiveNP_7_up": 2.3824949319579725,
            "JET_JER_EffectiveNP_7_down": 2.2493416354642504,
            "JET_JER_EffectiveNP_8_up": 2.3908898714525186,
            "JET_JER_EffectiveNP_8_down": 2.257698038111034,
            "JET_JER_EffectiveNP_9_up": 2.2486938491116115,
            "JET_JER_EffectiveNP_9_down": 2.222414768941601,
            "JET_JER_EffectiveNP_10_up": 2.279638558784545,
            "JET_JER_EffectiveNP_10_down": 2.418192610207987,
            "JET_JER_EffectiveNP_11_up": 2.2778051511164525,
            "JET_JER_EffectiveNP_11_down": 2.2834193414261312,
            "JET_JER_EffectiveNP_12restTerm_up": 2.3016526590438575,
            "JET_JER_EffectiveNP_12restTerm_down": 2.3108801928168887,
            "JET_JER_DataVsMC_MC16_up": 2.48454709876145,
            "JET_JER_DataVsMC_MC16_down": 2.4370324559634797
        },
        "SR_monoShh_bin_450_500": {
            "JET_JER_EffectiveNP_1_up": 1.8262686793087097,
            "JET_JER_EffectiveNP_1_down": 2.072963832685025,
            "JET_JER_EffectiveNP_2_up": 2.1315266180027588,
            "JET_JER_EffectiveNP_2_down": 1.7249938294439593,
            "JET_JER_EffectiveNP_3_up": 1.97674349701418,
            "JET_JER_EffectiveNP_3_down": 1.993154588073697,
            "JET_JER_EffectiveNP_4_up": 2.189707802290009,
            "JET_JER_EffectiveNP_4_down": 1.9737295930392866,
            "JET_JER_EffectiveNP_5_up": 2.0421221129819336,
            "JET_JER_EffectiveNP_5_down": 1.9231969857763085,
            "JET_JER_EffectiveNP_6_up": 1.9421404643638385,
            "JET_JER_EffectiveNP_6_down": 1.6994690490160411,
            "JET_JER_EffectiveNP_7_up": 2.121681217107311,
            "JET_JER_EffectiveNP_7_down": 2.012010483978552,
            "JET_JER_EffectiveNP_8_up": 1.7779801971540548,
            "JET_JER_EffectiveNP_8_down": 2.1391708348040055,
            "JET_JER_EffectiveNP_9_up": 1.69004869094897,
            "JET_JER_EffectiveNP_9_down": 2.0506361204162458,
            "JET_JER_EffectiveNP_10_up": 1.798516990601759,
            "JET_JER_EffectiveNP_10_down": 2.0263405887954846,
            "JET_JER_EffectiveNP_11_up": 2.189338575269485,
            "JET_JER_EffectiveNP_11_down": 1.6468609780205838,
            "JET_JER_EffectiveNP_12restTerm_up": 1.6573713187108001,
            "JET_JER_EffectiveNP_12restTerm_down": 2.049450823835377,
            "JET_JER_DataVsMC_MC16_up": 2.1872413644323228,
            "JET_JER_DataVsMC_MC16_down": 1.5533472016798753
        },
        "SR_monoShh_bin_500_550": {
            "JET_JER_EffectiveNP_1_up": 1.7095100702206067,
            "JET_JER_EffectiveNP_1_down": 1.7514623540688012,
            "JET_JER_EffectiveNP_2_up": 1.6667020116900393,
            "JET_JER_EffectiveNP_2_down": 1.8152420723430196,
            "JET_JER_EffectiveNP_3_up": 1.5949280491165538,
            "JET_JER_EffectiveNP_3_down": 1.6782243070390204,
            "JET_JER_EffectiveNP_4_up": 1.5571896550758968,
            "JET_JER_EffectiveNP_4_down": 1.5743821858766642,
            "JET_JER_EffectiveNP_5_up": 1.5998331455697261,
            "JET_JER_EffectiveNP_5_down": 1.8578305768787255,
            "JET_JER_EffectiveNP_6_up": 1.6734609159624432,
            "JET_JER_EffectiveNP_6_down": 2.0122984573250955,
            "JET_JER_EffectiveNP_7_up": 1.5552524377413133,
            "JET_JER_EffectiveNP_7_down": 1.5797761305216138,
            "JET_JER_EffectiveNP_8_up": 1.853888950152736,
            "JET_JER_EffectiveNP_8_down": 1.6969915047012618,
            "JET_JER_EffectiveNP_9_up": 1.9855612639646245,
            "JET_JER_EffectiveNP_9_down": 1.5602602512421453,
            "JET_JER_EffectiveNP_10_up": 1.6370908584656827,
            "JET_JER_EffectiveNP_10_down": 1.6351785338033287,
            "JET_JER_EffectiveNP_11_up": 1.6402144819280395,
            "JET_JER_EffectiveNP_11_down": 1.7988251813272071,
            "JET_JER_EffectiveNP_12restTerm_up": 1.8818413050071998,
            "JET_JER_EffectiveNP_12restTerm_down": 1.6290194649408272,
            "JET_JER_DataVsMC_MC16_up": 1.6883639715193617,
            "JET_JER_DataVsMC_MC16_down": 1.7407406659137517
        },
        "SR_monoShh_bin_550_600": {
            "JET_JER_EffectiveNP_1_up": 1.1299123782652072,
            "JET_JER_EffectiveNP_1_down": 0.8498508636491456,
            "JET_JER_EffectiveNP_2_up": 0.9801354021145287,
            "JET_JER_EffectiveNP_2_down": 0.8138476776710227,
            "JET_JER_EffectiveNP_3_up": 0.7584278948731884,
            "JET_JER_EffectiveNP_3_down": 0.9091802498923951,
            "JET_JER_EffectiveNP_4_up": 0.7967326030157637,
            "JET_JER_EffectiveNP_4_down": 0.9143055008737924,
            "JET_JER_EffectiveNP_5_up": 0.9345548004963,
            "JET_JER_EffectiveNP_5_down": 0.9397743077107418,
            "JET_JER_EffectiveNP_6_up": 0.9543284451192842,
            "JET_JER_EffectiveNP_6_down": 1.0071077353000333,
            "JET_JER_EffectiveNP_7_up": 0.9145619809075891,
            "JET_JER_EffectiveNP_7_down": 0.9551768873755273,
            "JET_JER_EffectiveNP_8_up": 0.916109994256512,
            "JET_JER_EffectiveNP_8_down": 0.8580812032602372,
            "JET_JER_EffectiveNP_9_up": 0.9912844564727152,
            "JET_JER_EffectiveNP_9_down": 0.8241558953035455,
            "JET_JER_EffectiveNP_10_up": 0.8406494864843304,
            "JET_JER_EffectiveNP_10_down": 0.8553070758298766,
            "JET_JER_EffectiveNP_11_up": 0.8916752136584583,
            "JET_JER_EffectiveNP_11_down": 0.8215546811297965,
            "JET_JER_EffectiveNP_12restTerm_up": 0.9559841273553638,
            "JET_JER_EffectiveNP_12restTerm_down": 0.8293850080598749,
            "JET_JER_DataVsMC_MC16_up": 0.8781138435474287,
            "JET_JER_DataVsMC_MC16_down": 0.948174761312242
        },
        "SR_monoShh_bin_600_650": {
            "JET_JER_EffectiveNP_1_up": 0.7428863607365979,
            "JET_JER_EffectiveNP_1_down": 1.236776691683278,
            "JET_JER_EffectiveNP_2_up": 0.7896403826394099,
            "JET_JER_EffectiveNP_2_down": 1.1267990880552776,
            "JET_JER_EffectiveNP_3_up": 1.1358176586379163,
            "JET_JER_EffectiveNP_3_down": 0.9356402688067731,
            "JET_JER_EffectiveNP_4_up": 1.0561240861423822,
            "JET_JER_EffectiveNP_4_down": 0.9431007160904354,
            "JET_JER_EffectiveNP_5_up": 1.0671192496988562,
            "JET_JER_EffectiveNP_5_down": 0.953469184860342,
            "JET_JER_EffectiveNP_6_up": 1.1402274912145651,
            "JET_JER_EffectiveNP_6_down": 0.9052341178120393,
            "JET_JER_EffectiveNP_7_up": 0.9417201837488727,
            "JET_JER_EffectiveNP_7_down": 1.109098013679517,
            "JET_JER_EffectiveNP_8_up": 0.9490550524751067,
            "JET_JER_EffectiveNP_8_down": 0.9807499980080825,
            "JET_JER_EffectiveNP_9_up": 0.9450764720999418,
            "JET_JER_EffectiveNP_9_down": 1.1458336993389429,
            "JET_JER_EffectiveNP_10_up": 1.1436197340784227,
            "JET_JER_EffectiveNP_10_down": 1.0321945498077891,
            "JET_JER_EffectiveNP_11_up": 1.0322746870091097,
            "JET_JER_EffectiveNP_11_down": 1.019450892423475,
            "JET_JER_EffectiveNP_12restTerm_up": 0.9706549165781904,
            "JET_JER_EffectiveNP_12restTerm_down": 1.1715855169931229,
            "JET_JER_DataVsMC_MC16_up": 1.045464208124152,
            "JET_JER_DataVsMC_MC16_down": 0.8102094985316914
        },
        "SR_monoShh_bin_650_700": {
            "JET_JER_EffectiveNP_1_up": 0.605555999662767,
            "JET_JER_EffectiveNP_1_down": 0.4064313065255206,
            "JET_JER_EffectiveNP_2_up": 0.5670276120317368,
            "JET_JER_EffectiveNP_2_down": 0.4506276559287057,
            "JET_JER_EffectiveNP_3_up": 0.4866403461596315,
            "JET_JER_EffectiveNP_3_down": 0.3918964697213413,
            "JET_JER_EffectiveNP_4_up": 0.5217843398852513,
            "JET_JER_EffectiveNP_4_down": 0.4456414243868964,
            "JET_JER_EffectiveNP_5_up": 0.40561836680589525,
            "JET_JER_EffectiveNP_5_down": 0.5212032454850846,
            "JET_JER_EffectiveNP_6_up": 0.43094618910799254,
            "JET_JER_EffectiveNP_6_down": 0.49753865322642776,
            "JET_JER_EffectiveNP_7_up": 0.4770628978488155,
            "JET_JER_EffectiveNP_7_down": 0.4538348239331652,
            "JET_JER_EffectiveNP_8_up": 0.4518207514916339,
            "JET_JER_EffectiveNP_8_down": 0.49183446192228614,
            "JET_JER_EffectiveNP_9_up": 0.4808164498403382,
            "JET_JER_EffectiveNP_9_down": 0.4429415774458757,
            "JET_JER_EffectiveNP_10_up": 0.4995721308490407,
            "JET_JER_EffectiveNP_10_down": 0.485166962483174,
            "JET_JER_EffectiveNP_11_up": 0.4420622080177333,
            "JET_JER_EffectiveNP_11_down": 0.4798064117857183,
            "JET_JER_EffectiveNP_12restTerm_up": 0.4664062602337111,
            "JET_JER_EffectiveNP_12restTerm_down": 0.4769837105843546,
            "JET_JER_DataVsMC_MC16_up": 0.47341067247692076,
            "JET_JER_DataVsMC_MC16_down": 0.5401183280065027
        },
        "SR_monoShh_bin_700_750": {
            "JET_JER_EffectiveNP_1_up": 0.6339379503223052,
            "JET_JER_EffectiveNP_1_down": 0.7033742345246196,
            "JET_JER_EffectiveNP_2_up": 0.6756317227147308,
            "JET_JER_EffectiveNP_2_down": 0.7219771544249363,
            "JET_JER_EffectiveNP_3_up": 0.7554228004839315,
            "JET_JER_EffectiveNP_3_down": 0.674445412715317,
            "JET_JER_EffectiveNP_4_up": 0.6449648109573243,
            "JET_JER_EffectiveNP_4_down": 0.6737448087710121,
            "JET_JER_EffectiveNP_5_up": 0.7020810724855433,
            "JET_JER_EffectiveNP_5_down": 0.6529298450291066,
            "JET_JER_EffectiveNP_6_up": 0.6894554425111903,
            "JET_JER_EffectiveNP_6_down": 0.6712827063863849,
            "JET_JER_EffectiveNP_7_up": 0.685857592212547,
            "JET_JER_EffectiveNP_7_down": 0.6554151329205703,
            "JET_JER_EffectiveNP_8_up": 0.7117864475700024,
            "JET_JER_EffectiveNP_8_down": 0.6417447344693413,
            "JET_JER_EffectiveNP_9_up": 0.644893322675644,
            "JET_JER_EffectiveNP_9_down": 0.6682872311395173,
            "JET_JER_EffectiveNP_10_up": 0.6406887349004994,
            "JET_JER_EffectiveNP_10_down": 0.6750703834543481,
            "JET_JER_EffectiveNP_11_up": 0.6480021265828578,
            "JET_JER_EffectiveNP_11_down": 0.668514104228804,
            "JET_JER_EffectiveNP_12restTerm_up": 0.6851482335149627,
            "JET_JER_EffectiveNP_12restTerm_down": 0.62362616765428,
            "JET_JER_DataVsMC_MC16_up": 0.6601035332217262,
            "JET_JER_DataVsMC_MC16_down": 0.6613846479555311
        },
        "SR_monoShh_bin_750_800": {
            "JET_JER_EffectiveNP_1_up": 0.22482612864343654,
            "JET_JER_EffectiveNP_1_down": 0.35886463839190874,
            "JET_JER_EffectiveNP_2_up": 0.25019108985138483,
            "JET_JER_EffectiveNP_2_down": 0.26661737826441256,
            "JET_JER_EffectiveNP_3_up": 0.33998926841619764,
            "JET_JER_EffectiveNP_3_down": 0.23249498612909497,
            "JET_JER_EffectiveNP_4_up": 0.3310252136033698,
            "JET_JER_EffectiveNP_4_down": 0.3057039715558122,
            "JET_JER_EffectiveNP_5_up": 0.2501871052045059,
            "JET_JER_EffectiveNP_5_down": 0.2788546008940297,
            "JET_JER_EffectiveNP_6_up": 0.28243458785263303,
            "JET_JER_EffectiveNP_6_down": 0.28824124958337394,
            "JET_JER_EffectiveNP_7_up": 0.27897073995008176,
            "JET_JER_EffectiveNP_7_down": 0.2791127251786223,
            "JET_JER_EffectiveNP_8_up": 0.2416541813563981,
            "JET_JER_EffectiveNP_8_down": 0.27869258829773774,
            "JET_JER_EffectiveNP_9_up": 0.2791222512694277,
            "JET_JER_EffectiveNP_9_down": 0.2503705099281885,
            "JET_JER_EffectiveNP_10_up": 0.23275283143185957,
            "JET_JER_EffectiveNP_10_down": 0.27897546012658825,
            "JET_JER_EffectiveNP_11_up": 0.3261601883286884,
            "JET_JER_EffectiveNP_11_down": 0.22383778815300764,
            "JET_JER_EffectiveNP_12restTerm_up": 0.27040471716681275,
            "JET_JER_EffectiveNP_12restTerm_down": 0.3262354758464046,
            "JET_JER_DataVsMC_MC16_up": 0.36363067159502793,
            "JET_JER_DataVsMC_MC16_down": 0.2851657942453125
        },
        "SR_monoShh_bin_800_850": {
            "JET_JER_EffectiveNP_1_up": 0.24065483130706544,
            "JET_JER_EffectiveNP_1_down": -0.03297806926400376,
            "JET_JER_EffectiveNP_2_up": 0.21625869517784896,
            "JET_JER_EffectiveNP_2_down": 0.03655676444275374,
            "JET_JER_EffectiveNP_3_up": 0.027235574156485476,
            "JET_JER_EffectiveNP_3_down": 0.1721689883572687,
            "JET_JER_EffectiveNP_4_up": 0.09362533730422856,
            "JET_JER_EffectiveNP_4_down": 0.13309690234313853,
            "JET_JER_EffectiveNP_5_up": 0.1388300225166095,
            "JET_JER_EffectiveNP_5_down": 0.21821001184958055,
            "JET_JER_EffectiveNP_6_up": 0.13166241790116687,
            "JET_JER_EffectiveNP_6_down": 0.23049811186773372,
            "JET_JER_EffectiveNP_7_up": 0.133950138724578,
            "JET_JER_EffectiveNP_7_down": 0.1369527072163939,
            "JET_JER_EffectiveNP_8_up": 0.13743304378079385,
            "JET_JER_EffectiveNP_8_down": 0.15423743559634712,
            "JET_JER_EffectiveNP_9_up": 0.16372516926740502,
            "JET_JER_EffectiveNP_9_down": 0.13728222368762272,
            "JET_JER_EffectiveNP_10_up": 0.16422013323848653,
            "JET_JER_EffectiveNP_10_down": 0.13692763712785622,
            "JET_JER_EffectiveNP_11_up": 0.09917573833995882,
            "JET_JER_EffectiveNP_11_down": 0.2304566865404289,
            "JET_JER_EffectiveNP_12restTerm_up": 0.16373235108641843,
            "JET_JER_EffectiveNP_12restTerm_down": 0.099186712213363,
            "JET_JER_DataVsMC_MC16_up": -0.048975049580387287,
            "JET_JER_DataVsMC_MC16_down": 0.14816616853656173
        },
        "SR_monoShh_bin_850_900": {
            "JET_JER_EffectiveNP_1_up": 0.24709930023347038,
            "JET_JER_EffectiveNP_1_down": 0.23539737768993285,
            "JET_JER_EffectiveNP_2_up": 0.21853261478646102,
            "JET_JER_EffectiveNP_2_down": 0.22524785196543134,
            "JET_JER_EffectiveNP_3_up": 0.28412429182484084,
            "JET_JER_EffectiveNP_3_down": 0.16977839906451775,
            "JET_JER_EffectiveNP_4_up": 0.16751292371944043,
            "JET_JER_EffectiveNP_4_down": 0.14259861498198448,
            "JET_JER_EffectiveNP_5_up": 0.1415977255490753,
            "JET_JER_EffectiveNP_5_down": 0.28363623897835716,
            "JET_JER_EffectiveNP_6_up": 0.2531573558753871,
            "JET_JER_EffectiveNP_6_down": 0.17206069461782114,
            "JET_JER_EffectiveNP_7_up": 0.198388096573383,
            "JET_JER_EffectiveNP_7_down": 0.3183885100843725,
            "JET_JER_EffectiveNP_8_up": 0.1738681153716029,
            "JET_JER_EffectiveNP_8_down": 0.13369260075228387,
            "JET_JER_EffectiveNP_9_up": 0.17202208760024404,
            "JET_JER_EffectiveNP_9_down": 0.25315436788130696,
            "JET_JER_EffectiveNP_10_up": 0.21506398299104712,
            "JET_JER_EffectiveNP_10_down": 0.09255972767527937,
            "JET_JER_EffectiveNP_11_up": 0.17383830578049145,
            "JET_JER_EffectiveNP_11_down": 0.21553920501907184,
            "JET_JER_EffectiveNP_12restTerm_up": 0.17204146355202016,
            "JET_JER_EffectiveNP_12restTerm_down": 0.24745299534200021,
            "JET_JER_DataVsMC_MC16_up": 0.15011383653166038,
            "JET_JER_DataVsMC_MC16_down": 0.24263529500993364
        },
        "SR_monoShh_bin_900_950": {
            "JET_JER_EffectiveNP_1_up": 0.11601526108830068,
            "JET_JER_EffectiveNP_1_down": 0.17760119411539374,
            "JET_JER_EffectiveNP_2_up": 0.14016792232461794,
            "JET_JER_EffectiveNP_2_down": 0.13744763425094697,
            "JET_JER_EffectiveNP_3_up": 0.14011871447452293,
            "JET_JER_EffectiveNP_3_down": 0.14346296607178372,
            "JET_JER_EffectiveNP_4_up": 0.18489587704686228,
            "JET_JER_EffectiveNP_4_down": 0.14992614379896893,
            "JET_JER_EffectiveNP_5_up": 0.17150169141467017,
            "JET_JER_EffectiveNP_5_down": 0.18440407897133823,
            "JET_JER_EffectiveNP_6_up": 0.16429858510366097,
            "JET_JER_EffectiveNP_6_down": 0.11600930837566817,
            "JET_JER_EffectiveNP_7_up": 0.14568718818608162,
            "JET_JER_EffectiveNP_7_down": 0.17047928801690293,
            "JET_JER_EffectiveNP_8_up": 0.17704435330403975,
            "JET_JER_EffectiveNP_8_down": 0.16315406302593105,
            "JET_JER_EffectiveNP_9_up": 0.11601189984235663,
            "JET_JER_EffectiveNP_9_down": 0.16996035627979822,
            "JET_JER_EffectiveNP_10_up": 0.1843861841402679,
            "JET_JER_EffectiveNP_10_down": 0.14169910359028076,
            "JET_JER_EffectiveNP_11_up": 0.14129003736093287,
            "JET_JER_EffectiveNP_11_down": 0.176070721963458,
            "JET_JER_EffectiveNP_12restTerm_up": 0.15471894143950998,
            "JET_JER_EffectiveNP_12restTerm_down": 0.17702147570786006,
            "JET_JER_DataVsMC_MC16_up": 0.1700724456282519,
            "JET_JER_DataVsMC_MC16_down": 0.11232048591652588
        },
        "SR_monoShh_bin_950_1000": {
            "JET_JER_EffectiveNP_1_up": 0.11928976047764847,
            "JET_JER_EffectiveNP_1_down": 0.17417518318319897,
            "JET_JER_EffectiveNP_2_up": 0.10484056660777857,
            "JET_JER_EffectiveNP_2_down": 0.19926725184225466,
            "JET_JER_EffectiveNP_3_up": 0.20323216746583184,
            "JET_JER_EffectiveNP_3_down": 0.12833812147873924,
            "JET_JER_EffectiveNP_4_up": 0.1384894032242014,
            "JET_JER_EffectiveNP_4_down": 0.09702951536277005,
            "JET_JER_EffectiveNP_5_up": 0.19928328678134538,
            "JET_JER_EffectiveNP_5_down": 0.21000080460188983,
            "JET_JER_EffectiveNP_6_up": 0.1895132514457959,
            "JET_JER_EffectiveNP_6_down": 0.18233626256212632,
            "JET_JER_EffectiveNP_7_up": 0.1687088521430682,
            "JET_JER_EffectiveNP_7_down": 0.1711220738809893,
            "JET_JER_EffectiveNP_8_up": 0.2388403349288772,
            "JET_JER_EffectiveNP_8_down": 0.18616865916192943,
            "JET_JER_EffectiveNP_9_up": 0.14603968527067007,
            "JET_JER_EffectiveNP_9_down": 0.23596533378102325,
            "JET_JER_EffectiveNP_10_up": 0.1600378494438785,
            "JET_JER_EffectiveNP_10_down": 0.2138818224252311,
            "JET_JER_EffectiveNP_11_up": 0.21837767497137114,
            "JET_JER_EffectiveNP_11_down": 0.15742970220208274,
            "JET_JER_EffectiveNP_12restTerm_up": 0.137785317154296,
            "JET_JER_EffectiveNP_12restTerm_down": 0.16742070022563293,
            "JET_JER_DataVsMC_MC16_up": 0.21398035541119312,
            "JET_JER_DataVsMC_MC16_down": 0.12942138550865565
        },
        "VR_monoShh": {
            "JET_JER_EffectiveNP_1_up": 11.285174963831691,
            "JET_JER_EffectiveNP_1_down": 13.911748498475834,
            "JET_JER_EffectiveNP_2_up": 11.77346223339119,
            "JET_JER_EffectiveNP_2_down": 12.784056542666224,
            "JET_JER_EffectiveNP_3_up": 13.214283534600238,
            "JET_JER_EffectiveNP_3_down": 11.522419724946982,
            "JET_JER_EffectiveNP_4_up": 12.647032743508984,
            "JET_JER_EffectiveNP_4_down": 11.587589215263003,
            "JET_JER_EffectiveNP_5_up": 12.442296170907996,
            "JET_JER_EffectiveNP_5_down": 13.190038197233774,
            "JET_JER_EffectiveNP_6_up": 12.488335050514863,
            "JET_JER_EffectiveNP_6_down": 12.536562832536958,
            "JET_JER_EffectiveNP_7_up": 12.564904297801586,
            "JET_JER_EffectiveNP_7_down": 11.860733067076477,
            "JET_JER_EffectiveNP_8_up": 12.56944575040854,
            "JET_JER_EffectiveNP_8_down": 11.40778415672633,
            "JET_JER_EffectiveNP_9_up": 12.751070271626036,
            "JET_JER_EffectiveNP_9_down": 12.618060834046483,
            "JET_JER_EffectiveNP_10_up": 12.543727444538181,
            "JET_JER_EffectiveNP_10_down": 12.297974736902741,
            "JET_JER_EffectiveNP_11_up": 12.602912092180414,
            "JET_JER_EffectiveNP_11_down": 11.761821373688434,
            "JET_JER_EffectiveNP_12restTerm_up": 12.115686690973286,
            "JET_JER_EffectiveNP_12restTerm_down": 12.367674097462576,
            "JET_JER_DataVsMC_MC16_up": 12.199079107853095,
            "JET_JER_DataVsMC_MC16_down": 11.464975087682737
        }
    }
}