{
  "diboson": {
    "CR_Z_monoShh": {
      "JET_JER_EffectiveNP_1_up": -0.0725842765820739,
      "JET_JER_EffectiveNP_1_down": 0.08884108135554737,
      "JET_JER_EffectiveNP_2_up": -0.04329071999319406,
      "JET_JER_EffectiveNP_2_down": 0.08625723105713978,
      "JET_JER_EffectiveNP_3_up": 0.06238096935384961,
      "JET_JER_EffectiveNP_3_down": -0.0645079831674311,
      "JET_JER_EffectiveNP_4_up": 0.06081260728196564,
      "JET_JER_EffectiveNP_4_down": -0.053065748730229956,
      "JET_JER_EffectiveNP_5_up": -0.015236667239858453,
      "JET_JER_EffectiveNP_5_down": -0.0009837208615485684,
      "JET_JER_EffectiveNP_6_up": 0.013652174212986144,
      "JET_JER_EffectiveNP_6_down": -0.005175081832821165,
      "JET_JER_EffectiveNP_7_up": 0.003154952067287931,
      "JET_JER_EffectiveNP_7_down": -0.015434143406110774,
      "JET_JER_EffectiveNP_8_up": 0.014122475685597373,
      "JET_JER_EffectiveNP_8_down": -0.01898467152854272,
      "JET_JER_EffectiveNP_9_up": -0.035933499441117414,
      "JET_JER_EffectiveNP_9_down": 0.029522707441186628,
      "JET_JER_EffectiveNP_10_up": -0.018840866149448746,
      "JET_JER_EffectiveNP_10_down": -0.008458840855058129,
      "JET_JER_EffectiveNP_11_up": 0.009712946957466533,
      "JET_JER_EffectiveNP_11_down": -0.0006769777594922285,
      "JET_JER_EffectiveNP_12restTerm_up": -0.024969783601208023,
      "JET_JER_EffectiveNP_12restTerm_down": 0.022378089017375407,
      "JET_JER_DataVsMC_MC16_up": 0.030253081884637694,
      "JET_JER_DataVsMC_MC16_down": -0.038355977763703204
    },
    "CR_3b_high_mTb_monoShh": {
      "JET_JER_EffectiveNP_1_up": 0.08661035808357298,
      "JET_JER_EffectiveNP_1_down": -0.03760703250651746,
      "JET_JER_EffectiveNP_2_up": 0.07034434237120211,
      "JET_JER_EffectiveNP_2_down": -0.015307944146020262,
      "JET_JER_EffectiveNP_3_up": 0.08792260930428823,
      "JET_JER_EffectiveNP_3_down": 0.06946181652092473,
      "JET_JER_EffectiveNP_4_up": -0.04442643880947635,
      "JET_JER_EffectiveNP_4_down": 0.10389148094762156,
      "JET_JER_EffectiveNP_5_up": 0.11301245004072442,
      "JET_JER_EffectiveNP_5_down": 0.009132862636147182,
      "JET_JER_EffectiveNP_6_up": 0.11326622257031818,
      "JET_JER_EffectiveNP_6_down": -0.05726803767666949,
      "JET_JER_EffectiveNP_7_up": -0.009685209492077056,
      "JET_JER_EffectiveNP_7_down": 0.05300708949409742,
      "JET_JER_EffectiveNP_8_up": 0.010026680525722576,
      "JET_JER_EffectiveNP_8_down": 0.10532958269730466,
      "JET_JER_EffectiveNP_9_up": -0.013670632714330238,
      "JET_JER_EffectiveNP_9_down": -0.0255093764105059,
      "JET_JER_EffectiveNP_10_up": -0.00443439758676882,
      "JET_JER_EffectiveNP_10_down": 0.007176839177135817,
      "JET_JER_EffectiveNP_11_up": -0.00011083784112021877,
      "JET_JER_EffectiveNP_11_down": -0.0032877931114885617,
      "JET_JER_EffectiveNP_12restTerm_up": -0.018269311568490713,
      "JET_JER_EffectiveNP_12restTerm_down": 0.037027764689487194,
      "JET_JER_DataVsMC_MC16_up": 0.03280951201629293,
      "JET_JER_DataVsMC_MC16_down": 0.1031248587937394
    },
    "CR_3b_low_mTb_monoShh": {
      "JET_JER_EffectiveNP_1_up": -0.1580735596419967,
      "JET_JER_EffectiveNP_1_down": 0.23460104249885455,
      "JET_JER_EffectiveNP_2_up": -0.011660817547856623,
      "JET_JER_EffectiveNP_2_down": 0.1014731771005828,
      "JET_JER_EffectiveNP_3_up": 0.11926849879014019,
      "JET_JER_EffectiveNP_3_down": -0.01061553407134351,
      "JET_JER_EffectiveNP_4_up": 0.22669887024542754,
      "JET_JER_EffectiveNP_4_down": -0.023103799657289502,
      "JET_JER_EffectiveNP_5_up": 0.12341092401479971,
      "JET_JER_EffectiveNP_5_down": -0.062591865986599,
      "JET_JER_EffectiveNP_6_up": 0.07275870961320395,
      "JET_JER_EffectiveNP_6_down": -0.0034253216264740665,
      "JET_JER_EffectiveNP_7_up": 0.008917529798323382,
      "JET_JER_EffectiveNP_7_down": -0.043952346907999394,
      "JET_JER_EffectiveNP_8_up": 0.037578162301410915,
      "JET_JER_EffectiveNP_8_down": 0.060521627786801604,
      "JET_JER_EffectiveNP_9_up": -0.0012641968334779004,
      "JET_JER_EffectiveNP_9_down": 0.059257519175683386,
      "JET_JER_EffectiveNP_10_up": 0.11652933534661772,
      "JET_JER_EffectiveNP_10_down": -0.08231985572162794,
      "JET_JER_EffectiveNP_11_up": 0.02573407558067177,
      "JET_JER_EffectiveNP_11_down": 0.06080346358456362,
      "JET_JER_EffectiveNP_12restTerm_up": -0.007587373590443723,
      "JET_JER_EffectiveNP_12restTerm_down": 0.03521508529090777,
      "JET_JER_DataVsMC_MC16_up": 0.053764978427126096,
      "JET_JER_DataVsMC_MC16_down": -0.08961418752546438
    },
    "CR_4b_monoShh": {
      "JET_JER_EffectiveNP_1_up": 0.0008503099609737338,
      "JET_JER_EffectiveNP_1_down": -0.3196063946356125,
      "JET_JER_EffectiveNP_2_up": -0.04346515993872238,
      "JET_JER_EffectiveNP_2_down": 0.017323765497713774,
      "JET_JER_EffectiveNP_3_up": -0.07906191216605268,
      "JET_JER_EffectiveNP_3_down": 0.008747108804401736,
      "JET_JER_EffectiveNP_4_up": 0.09428651215719444,
      "JET_JER_EffectiveNP_4_down": -0.02917380099082613,
      "JET_JER_EffectiveNP_5_up": 0.020928914695390554,
      "JET_JER_EffectiveNP_5_down": 0.10606984663541294,
      "JET_JER_EffectiveNP_6_up": 0.008191866487330965,
      "JET_JER_EffectiveNP_6_down": -0.058729130341483714,
      "JET_JER_EffectiveNP_7_up": -0.10235647979771177,
      "JET_JER_EffectiveNP_7_down": 0.007750257649557285,
      "JET_JER_EffectiveNP_8_up": -0.0016563482278776492,
      "JET_JER_EffectiveNP_8_down": -0.005833971202445518,
      "JET_JER_EffectiveNP_9_up": 0.0410556400064457,
      "JET_JER_EffectiveNP_9_down": -0.02169618664143862,
      "JET_JER_EffectiveNP_10_up": 0.13496102446120528,
      "JET_JER_EffectiveNP_10_down": -0.05765596607522536,
      "JET_JER_EffectiveNP_11_up": -0.09363550295225027,
      "JET_JER_EffectiveNP_11_down": 0.031963993870598895,
      "JET_JER_EffectiveNP_12restTerm_up": 0.00834708150324552,
      "JET_JER_EffectiveNP_12restTerm_down": -0.05368508523381685,
      "JET_JER_DataVsMC_MC16_up": -0.05879720800228227,
      "JET_JER_DataVsMC_MC16_down": 0.030036829457353233
    },
    "VR_monoShh": {
      "JET_JER_EffectiveNP_1_up": -0.7606452033359228,
      "JET_JER_EffectiveNP_1_down": -0.5445239961687335,
      "JET_JER_EffectiveNP_2_up": -0.6826322288664369,
      "JET_JER_EffectiveNP_2_down": -0.4725111339389293,
      "JET_JER_EffectiveNP_3_up": -0.5155638014595313,
      "JET_JER_EffectiveNP_3_down": -0.7616441841676466,
      "JET_JER_EffectiveNP_4_up": -0.46880113295647013,
      "JET_JER_EffectiveNP_4_down": -0.6956055167143148,
      "JET_JER_EffectiveNP_5_up": -0.5608454122303066,
      "JET_JER_EffectiveNP_5_down": -0.5846013006983194,
      "JET_JER_EffectiveNP_6_up": -0.5159261832963272,
      "JET_JER_EffectiveNP_6_down": -0.6307226201958127,
      "JET_JER_EffectiveNP_7_up": -0.5529101712336608,
      "JET_JER_EffectiveNP_7_down": -0.5297288370752183,
      "JET_JER_EffectiveNP_8_up": -0.5740907238968057,
      "JET_JER_EffectiveNP_8_down": -0.6337722971407797,
      "JET_JER_EffectiveNP_9_up": -0.6824088468175658,
      "JET_JER_EffectiveNP_9_down": -0.4598634724780244,
      "JET_JER_EffectiveNP_10_up": -0.505825553086112,
      "JET_JER_EffectiveNP_10_down": -0.6361843473651001,
      "JET_JER_EffectiveNP_11_up": -0.623716882103434,
      "JET_JER_EffectiveNP_11_down": -0.5601380534466375,
      "JET_JER_EffectiveNP_12restTerm_up": -0.5856715173592756,
      "JET_JER_EffectiveNP_12restTerm_down": -0.5344917105292702,
      "JET_JER_DataVsMC_MC16_up": -0.5400202299547927,
      "JET_JER_DataVsMC_MC16_down": -0.4712796101990626
    }
  }
}